%YAML 1.1
%TAG !u! tag:unity3d.com,2011:
--- !u!21 &2100000
Material:
  serializedVersion: 6
  m_ObjectHideFlags: 0
  m_PrefabParentObject: {fileID: 0}
  m_PrefabInternal: {fileID: 0}
  m_Name: Barrel1
  m_Shader: {fileID: 46, guid: 0000000000000000f000000000000000, type: 0}
  m_ShaderKeywords: _EMISSION _METALLICGLOSSMAP _NORMALMAP
  m_LightmapFlags: 1
  m_CustomRenderQueue: -1
  stringTagMap: {}
  m_SavedProperties:
    serializedVersion: 2
    m_TexEnvs:
    - first:
        name: _BumpMap
      second:
        m_Texture: {fileID: 2800000, guid: 6611f4e2c72a66b40b319c8ae69913e1, type: 3}
        m_Scale: {x: 1, y: 1}
        m_Offset: {x: 0, y: 0}
    - first:
        name: _DetailAlbedoMap
      second:
        m_Texture: {fileID: 0}
        m_Scale: {x: 1, y: 1}
        m_Offset: {x: 0, y: 0}
    - first:
        name: _DetailMask
      second:
        m_Texture: {fileID: 0}
        m_Scale: {x: 1, y: 1}
        m_Offset: {x: 0, y: 0}
    - first:
        name: _DetailNormalMap
      second:
        m_Texture: {fileID: 0}
        m_Scale: {x: 1, y: 1}
        m_Offset: {x: 0, y: 0}
    - first:
        name: _EmissionMap
      second:
        m_Texture: {fileID: 0}
        m_Scale: {x: 1, y: 1}
        m_Offset: {x: 0, y: 0}
    - first:
        name: _MainTex
      second:
        m_Texture: {fileID: 2800000, guid: d112947c87057a24d8a85798cf8c79fd, type: 3}
        m_Scale: {x: 1, y: 1}
        m_Offset: {x: 0, y: 0}
    - first:
        name: _MetallicGlossMap
      second:
        m_Texture: {fileID: 2800000, guid: f19bdd728a597b54b8186120a3ae63b2, type: 3}
        m_Scale: {x: 1, y: 1}
        m_Offset: {x: 0, y: 0}
    - first:
        name: _OcclusionMap
      second:
        m_Texture: {fileID: 2800000, guid: ed1bd68ed4aac0942a303703f07375b5, type: 3}
        m_Scale: {x: 1, y: 1}
        m_Offset: {x: 0, y: 0}
    - first:
        name: _ParallaxMap
      second:
        m_Texture: {fileID: 0}
        m_Scale: {x: 1, y: 1}
        m_Offset: {x: 0, y: 0}
    m_Floats:
    - first:
        name: _BumpScale
      second: 1
    - first:
        name: _Cutoff
      second: 0.5
    - first:
        name: _DetailNormalMapScale
      second: 1
    - first:
        name: _DstBlend
      second: 0
    - first:
        name: _GlossMapScale
      second: 1
    - first:
        name: _Glossiness
      second: 0.5
    - first:
        name: _GlossyReflections
      second: 1
    - first:
        name: _Metallic
      second: 0
    - first:
        name: _Mode
      second: 0
    - first:
        name: _OcclusionStrength
      second: 1
    - first:
        name: _Parallax
      second: 0.02
    - first:
        name: _SmoothnessTextureChannel
      second: 0
    - first:
        name: _SpecularHighlights
      second: 1
    - first:
        name: _SrcBlend
      second: 1
    - first:
        name: _UVSec
      second: 0
    - first:
        name: _ZWrite
      second: 1
    m_Colors:
    - first:
        name: _Color
      second: {r: 0.9921569, g: 0.9921569, b: 0.9921569, a: 1}
    - first:
        name: _EmissionColor
      second: {r: 0, g: 0, b: 0, a: 1}
